<?xml version="1.0" encoding="utf-8"?>
<!-- Generator: Adobe Illustrator 17.1.0, SVG Export Plug-In . SVG Version: 6.00 Build 0)  -->
<!DOCTYPE svg PUBLIC "-//W3C//DTD SVG 1.1//EN" "http://www.w3.org/Graphics/SVG/1.1/DTD/svg11.dtd">
<svg version="1.1" id="Layer_1" xmlns="http://www.w3.org/2000/svg" xmlns:xlink="http://www.w3.org/1999/xlink" x="0px" y="0px"
	 viewBox="0 0 168 55" enable-background="new 0 0 168 55" xml:space="preserve">
<linearGradient id="SVGID_1_" gradientUnits="userSpaceOnUse" x1="84" y1="55" x2="84" y2="-3.770765e-009">
	<stop  offset="0" style="stop-color:#14242B"/>
	<stop  offset="0.4332" style="stop-color:#18262F"/>
</linearGradient>
<rect fill="url(#SVGID_1_)" width="168" height="55"/>
<linearGradient id="SVGID_2_" gradientUnits="userSpaceOnUse" x1="84" y1="41.1667" x2="84" y2="-3.770765e-009">
	<stop  offset="0.3369" style="stop-color:#2B363C"/>
	<stop  offset="1" style="stop-color:#323D43"/>
</linearGradient>
<polygon fill="url(#SVGID_2_)" points="168,35 95.7,35 84,41.2 72.1,35 0,35 0,0 168,0 "/>
<polygon fill="#274756" points="0,35 76.3,35 84,41.2 91.7,35 168,35 168,37 92.8,37 84,43.5 75.2,37 0,37 "/>
<polygon fill="#274756" points="84,39.6 89.7,34.6 84,28.2 78.3,34.4 "/>
</svg>
